<?xml version="1.0" encoding="utf-8"?>
<!-- Generator: Adobe Illustrator 17.0.1, SVG Export Plug-In . SVG Version: 6.00 Build 0)  -->
<!DOCTYPE svg PUBLIC "-//W3C//DTD SVG 1.1//EN" "http://www.w3.org/Graphics/SVG/1.1/DTD/svg11.dtd">
<svg version="1.1" id="Слой_1" xmlns="http://www.w3.org/2000/svg" xmlns:xlink="http://www.w3.org/1999/xlink" x="0px" y="0px"
	 width="42px" height="32.6px" viewBox="0 0 42 32.6" style="enable-background:new 0 0 42 32.6;" xml:space="preserve">
<style type="text/css">
	.st0{fill:#B2D23A;}
</style>
<path class="st0" d="M27.5,8.4c-2.7,3.5-4.1,7.4-4.1,11.8c0,3.8,1,6.8,3,9c2,2.2,4.3,3.4,7.1,3.4c2.3,0,4.3-0.8,6-2.5
	c1.6-1.7,2.5-3.6,2.5-5.8c0-2.1-0.7-3.9-2.1-5.4c-1.4-1.5-3.1-2.3-4.9-2.3c-1.6,0-2.9,0.4-4,1.1c-0.3,0.2-0.6,0.3-0.7,0.3
	c-0.2,0-0.3-0.1-0.4-0.3c-0.2-0.3-0.3-0.7-0.3-1.4c0-2.9,1-5.6,2.9-8.3c1.9-2.7,4.6-4.6,8-5.8V0C34.5,2.1,30.2,4.9,27.5,8.4z
	 M4.1,8.4C1.4,11.9,0,15.8,0,20.2c0,3.8,1,6.8,3,9c2,2.2,4.3,3.4,7.1,3.4c2.3,0,4.3-0.8,6-2.5c1.6-1.7,2.5-3.6,2.5-5.8
	c0-2.1-0.7-3.9-2.1-5.4c-1.4-1.5-3.1-2.3-4.9-2.3c-1.6,0-2.9,0.4-4,1.1c-0.3,0.2-0.6,0.3-0.7,0.3c-0.2,0-0.3-0.1-0.4-0.3
	C6.1,17.6,6,17.1,6,16.5c0-2.9,1-5.6,2.9-8.3c1.9-2.7,4.6-4.6,8-5.8V0C11,2.1,6.8,4.9,4.1,8.4z"/>
</svg>
