<?xml version="1.0" encoding="utf-8"?>
<!-- Generator: Adobe Illustrator 17.0.1, SVG Export Plug-In . SVG Version: 6.00 Build 0)  -->
<!DOCTYPE svg PUBLIC "-//W3C//DTD SVG 1.1//EN" "http://www.w3.org/Graphics/SVG/1.1/DTD/svg11.dtd">
<svg version="1.1" id="Слой_1" xmlns="http://www.w3.org/2000/svg" xmlns:xlink="http://www.w3.org/1999/xlink" x="0px" y="0px"
	 width="15px" height="29px" viewBox="225.5 305.5 15 29" style="enable-background:new 225.5 305.5 15 29;" xml:space="preserve">
<g id="icomoon-ignore">
</g>
<path style="fill:#61116A;" d="M229.4,334.5v-13.3h-3.6v-4.8h3.6v-4.2c0-1.9,0.6-3.5,1.8-4.7c1.2-1.3,3-1.9,5.4-1.9
	c0.6,0,1.2,0,1.8,0.1c0.6,0,1.1,0.1,1.3,0.1l0.5,0.1l-0.2,4.6h-3.1c-0.9,0-1.4,0.2-1.7,0.6c-0.3,0.4-0.4,1-0.4,1.8v3.6h5.4l-0.4,4.8
	h-5.1v13.3H229.4L229.4,334.5z"/>
</svg>
