<?xml version="1.0" encoding="utf-8"?>
<!-- Generator: Adobe Illustrator 17.0.1, SVG Export Plug-In . SVG Version: 6.00 Build 0)  -->
<!DOCTYPE svg PUBLIC "-//W3C//DTD SVG 1.1//EN" "http://www.w3.org/Graphics/SVG/1.1/DTD/svg11.dtd">
<svg version="1.1" id="Слой_1" xmlns="http://www.w3.org/2000/svg" xmlns:xlink="http://www.w3.org/1999/xlink" x="0px" y="0px"
	 width="37px" height="27px" viewBox="214.5 306.5 37 27" style="enable-background:new 214.5 306.5 37 27;" xml:space="preserve">
<g id="icomoon-ignore">
</g>
<path style="fill:#61116A;" d="M233,306.9c6.9,0,11.2,0.2,13,0.5c2.3,0.4,3.8,1.3,4.5,2.7c0.6,1.2,1,3.7,1,7.4v2.5
	c0,4.5-0.2,7.4-0.5,8.7c-0.5,1.7-1.5,2.9-3.1,3.5c-1.7,0.6-5.2,1-10.6,1H233c-6.9,0-11.2-0.2-13-0.5c-2.3-0.4-3.8-1.3-4.5-2.7
	c-0.6-1.2-1-3.7-1-7.4V320c0-4.5,0.2-7.4,0.5-8.7c0.5-1.7,1.5-2.9,3.1-3.5c1.7-0.6,5.2-1,10.6-1C228.7,306.9,233,306.9,233,306.9z
	 M228.4,326.9l11.6-6.9l-11.6-6.9V326.9L228.4,326.9z"/>
</svg>
