<?xml version="1.0" encoding="utf-8"?>
<!-- Generator: Adobe Illustrator 17.0.1, SVG Export Plug-In . SVG Version: 6.00 Build 0)  -->
<!DOCTYPE svg PUBLIC "-//W3C//DTD SVG 1.1//EN" "http://www.w3.org/Graphics/SVG/1.1/DTD/svg11.dtd">
<svg version="1.1" id="Слой_1" xmlns="http://www.w3.org/2000/svg" xmlns:xlink="http://www.w3.org/1999/xlink" x="0px" y="0px"
	 width="48px" height="56px" viewBox="0 0 48 56" style="enable-background:new 0 0 48 56;" xml:space="preserve">
<style type="text/css">
	.st0{fill-rule:evenodd;clip-rule:evenodd;fill:#ffffff;}
</style>
<path class="st0" d="M22.5,10.3c0.6-3.1,1.2-6.1,1.7-9.1c0.2-1.1,0.7-1.3,1.7-1.2c4.5,0.6,6.7,3.5,6,8.1c-0.1,0.7-0.3,1.5-0.4,2.4
	c1.1,0,2.2-0.1,3.2,0c1.8,0.1,3.7,0.2,5.4,0.6c5,1.1,7.7,4.1,7.9,9.2c0.2,4.9-0.8,9.7-3.1,14.1c-2.8,5.1-7.4,7.2-13,7.6
	c-1.7,0.1-3.5,0.1-5.3,0.1c-0.8,0-1.2,0.2-1.3,1.1c-0.7,3.9-1.4,7.8-2.1,11.7c-0.1,0.4-0.2,0.8-0.3,1.2c-5,0.5-8.2-3.1-7.3-8
	c0.4-1.9,0.7-3.9,1.1-6.2c-2.3,0-4.4,0-6.6,0c-0.9,0-1.8-0.2-2.7-0.5c-4.3-1.1-6.8-3.8-7.2-8.2c-0.6-5.6,0.6-10.8,3.5-15.6
	c2.6-4.2,6.6-6.3,11.3-6.8C17.4,10.4,19.9,10.5,22.5,10.3z M26.9,34.4c2.2-0.1,4.3-0.1,6.3-0.4c1.8-0.2,3-1.3,3.8-2.9
	c1.3-2.8,1.9-5.7,1.9-8.7c0-2.7-1.3-3.9-3.9-4c-1.4-0.1-2.9,0-4.3-0.1c-0.6,0-0.9,0.3-1,0.8c-0.2,1.5-0.5,2.9-0.8,4.4
	C28.3,27,27.6,30.6,26.9,34.4z M21,18.3c-1.8,0-3.4-0.1-5,0c-1.8,0.1-3.5,0.8-4.5,2.4c-2,3.1-2.7,6.7-2.4,10.3c0.1,1.8,1,2.8,2.8,3
	c1.9,0.2,3.8,0.2,5.7,0.2c0.2,0,0.6-0.5,0.6-0.8c0.6-3.3,1.2-6.6,1.9-9.9C20.4,21.8,20.7,20.1,21,18.3z"/>
</svg>
