<?xml version="1.0" encoding="utf-8"?>
<!-- Generator: Adobe Illustrator 17.0.1, SVG Export Plug-In . SVG Version: 6.00 Build 0)  -->
<!DOCTYPE svg PUBLIC "-//W3C//DTD SVG 1.1//EN" "http://www.w3.org/Graphics/SVG/1.1/DTD/svg11.dtd">
<svg version="1.1" id="Слой_1" xmlns="http://www.w3.org/2000/svg" xmlns:xlink="http://www.w3.org/1999/xlink" x="0px" y="0px"
	 width="15px" height="12px" viewBox="0 0 15 12" style="enable-background:new 0 0 15 12;" xml:space="preserve">
<path style="fill:#60246A;" d="M14.7,0.3c0.4,0.4,0.4,0.8,0,1.3L6,10.5c0,0.1-0.1,0.1-0.1,0.2c-0.4,0.4-0.9,0.4-1.3,0L0.3,6.2
	c-0.4-0.4-0.4-0.8,0-1.2c0.4-0.4,0.8-0.4,1.2,0l3.7,3.7l8.2-8.4C13.8-0.1,14.3-0.1,14.7,0.3z"/>
</svg>
